소셜 네트워크 기말 프로젝트 보고서
…
#0615일자 결과
leaf6<-read_xlsx("D:/3-1/소셜네트워크/프로젝트/leaf6.xlsx")
str(leaf6)

## tibble [65,665 x 2] (S3: tbl_df/tbl/data.frame)
##  $ search_word    : chr [1:65665] "코로나" "코로나" "코로나" "코로나" ...
##  $ related_keyword: chr [1:65665] "코로나 확진자" "코로나 백신" "미국 코로나" "코로나 개학" ...

head(leaf6, 30)

## # A tibble: 30 x 2
##    search_word related_keyword
##    <chr>       <chr>          
##  1 코로나      코로나 확진자  
##  2 코로나      코로나 백신    
##  3 코로나      미국 코로나    
##  4 코로나      코로나 개학    
##  5 코로나      코로나 증상    
##  6 코로나      코로나19       
##  7 코로나      코로나 대전    
##  8 코로나      대전 코로나    
##  9 코로나      코로나 종식    
## 10 코로나      중국 코로나    
## # ... with 20 more rows
…
